{
    "id"        : "Region",
    "transparent" : true,
    "source": {
        "url"       : "https://wxs.ign.fr/3ht7xcw6f7nciopo16etuqp2/geoportail/v/wms",
        "networkOptions": {
            "crossOrigin": "anonymous"
        },
        "version"   : "1.3.0",
        "name"      : "REGIONS.2017",
        "style"      : "",
        "projection" : "EPSG:3857",
        "extent": {
            "west": "-6880639.13669047",
            "east": "6215707.87640867",
            "south": "-2438398.99670629",
            "north": "8837050.04559519"
        },
        "transparent" : true,
        "featureInfoMimeType" : "",
        "dateTime"  : "",
        "width" : 256,
        "waterMask"      : false,
        "updateStrategy": {
            "type": 0,
            "options": {}
        },
        "format"  : "image/png",
        "attribution" : {
            "name":"IGN",
            "url":"http://www.ign.fr/"
        },
        "zoom" : {
            "min": 5,
            "max": 21
        }
    }
}
